<?xml version="1.0" encoding="utf-8"?>
<!-- Generator: Adobe Illustrator 16.0.0, SVG Export Plug-In . SVG Version: 6.00 Build 0)  -->
<!DOCTYPE svg PUBLIC "-//W3C//DTD SVG 1.1//EN" "http://www.w3.org/Graphics/SVG/1.1/DTD/svg11.dtd">
<svg version="1.1" xmlns="http://www.w3.org/2000/svg" xmlns:xlink="http://www.w3.org/1999/xlink" x="0px" y="0px" width="48px"
	 height="32.003px" viewBox="0 0 48 32.003" enable-background="new 0 0 48 32.003" xml:space="preserve">
<g>
	<path fill-rule="evenodd" clip-rule="evenodd" fill="#FFFFFF" d="M42.377,2.024c-12.252,3.163-24.503,3.163-36.755,0
		c-0.331-0.087-0.869,0.067-0.869,0.41c0,9.044,0,18.089,0,27.133c0,0.343,0.538,0.496,0.869,0.41
		c12.251-3.163,24.503-3.163,36.755,0c0.331,0.086,0.869-0.067,0.869-0.41c0-9.044,0-18.089,0-27.133
		C43.246,2.091,42.709,1.937,42.377,2.024z M40.068,24.543l-5.352-5.868l-2.895,3.174l-4.943-5.645L22,21.774l-6.139-9.277
		L7.936,24.472C7.928,18.382,7.88,12.291,7.88,6.2c10.748,1.684,21.496,1.696,32.244,0.035
		C40.124,12.339,40.076,18.441,40.068,24.543z"/>
	<ellipse fill-rule="evenodd" clip-rule="evenodd" fill="#FFFFFF" cx="33.729" cy="11.678" rx="2.772" ry="2.89"/>
</g>
</svg>
