<?xml version="1.0" encoding="utf-8"?>
<!-- Generator: Adobe Illustrator 16.0.0, SVG Export Plug-In . SVG Version: 6.00 Build 0)  -->
<!DOCTYPE svg PUBLIC "-//W3C//DTD SVG 1.1//EN" "http://www.w3.org/Graphics/SVG/1.1/DTD/svg11.dtd">
<svg version="1.1" id="Слой_1" xmlns="http://www.w3.org/2000/svg" xmlns:xlink="http://www.w3.org/1999/xlink" x="0px" y="0px"
	 width="17.847px" height="19.906px" viewBox="0 0 17.847 19.906" enable-background="new 0 0 17.847 19.906" xml:space="preserve">
<path fill-rule="evenodd" clip-rule="evenodd" fill="#FFFFFF" d="M14.072,12.355c-1.234,0-2.32,0.601-3.009,1.516L7.15,11.613
	c0.248-0.503,0.401-1.062,0.401-1.66c0-0.476-0.098-0.926-0.259-1.345l3.992-2.305c0.691,0.761,1.678,1.248,2.787,1.248
	c2.085,0,3.775-1.69,3.775-3.775C17.847,1.69,16.157,0,14.072,0s-3.775,1.69-3.775,3.775c0,0.233,0.028,0.459,0.068,0.68
	L6.042,6.951C5.409,6.472,4.63,6.178,3.776,6.178C1.691,6.178,0,7.868,0,9.953c0,2.085,1.691,3.775,3.776,3.775
	c0.717,0,1.381-0.211,1.952-0.559l4.599,2.655c-0.009,0.103-0.031,0.201-0.031,0.306c0,2.085,1.69,3.775,3.775,3.775
	s3.775-1.69,3.775-3.775S16.157,12.355,14.072,12.355z"/>
</svg>
